{
  "users": [
    {
      "id": 1,
      "firstName": "????????",
      "lastName": "???????",
      "middleName": "?????????????",
      "organisationId": 1,
      "email": "mail1@mail.ru"
    },
    {
      "id": 2,
      "firstName": "???????",
      "lastName": "??????",
      "middleName": "??????????",
      "displayName": "??????? ??????",
      "organisationId": 1,
      "email": "mail2@mail.ru"
    },
    {
      "id": 3,
      "firstName": "???????",
      "lastName": "?????????",
      "middleName": "????????????",
      "organisationId": 1,
      "email": "mail3@mail.ru",
      "password": "123"
    },
    {
      "id": 4,
      "firstName": "???????????",
      "lastName": "??????",
      "middleName": "????????????",
      "organisationId": 1,
      "email": "mail4@mail.ru"
    },
    {
      "id": 5,
      "firstName": "????",
      "lastName": "????",
      "middleName": "?????????",
      "organisationId": 2,
      "email": "mail5@mail.ru"
    },
    {
      "id": 6,
      "firstName": "????????",
      "lastName": "??????",
      "middleName": "????????????",
      "organisationId": 2,
      "email": "mail6@mail.ru"
    },
    {
      "id": 7,
      "firstName": "???????",
      "lastName": "????",
      "middleName": "??????????",
      "organisationId": 2,
      "email": "mail7@mail.ru"
    },
    {
      "id": 8,
      "firstName": "????????",
      "lastName": "?????",
      "middleName": "????????????",
      "organisationId": 3,
      "email": "mail8@mail.ru"
    },
    {
      "id": 9,
      "firstName": "????????",
      "lastName": "???????",
      "middleName": "?????????????",
      "organisationId": 1,
      "email": "mail1@mail.ru"
    },
    {
      "id": 10,
      "firstName": "???????",
      "lastName": "??????",
      "middleName": "??????????",
      "displayName": "??????? ??????",
      "organisationId": 1,
      "email": "mail2@mail.ru"
    },
    {
      "id": 11,
      "firstName": "???????",
      "lastName": "?????????",
      "middleName": "????????????",
      "organisationId": 1,
      "email": "mail3@mail.ru",
      "password": "123"
    },
    {
      "id": 12,
      "firstName": "???????????",
      "lastName": "??????",
      "middleName": "????????????",
      "organisationId": 1,
      "email": "mail4@mail.ru"
    },
    {
      "id": 13,
      "firstName": "????",
      "lastName": "????",
      "middleName": "?????????",
      "organisationId": 2,
      "email": "mail5@mail.ru"
    },
    {
      "id": 14,
      "firstName": "????????",
      "lastName": "??????",
      "middleName": "????????????",
      "organisationId": 2,
      "email": "mail6@mail.ru"
    },
    {
      "id": 15,
      "firstName": "???????",
      "lastName": "????",
      "middleName": "??????????",
      "organisationId": 2,
      "email": "mail7@mail.ru"
    },
    {
      "id": 16,
      "firstName": "????????",
      "lastName": "?????",
      "middleName": "????????????",
      "organisationId": 3,
      "email": "mail8@mail.ru"
    },
    {
      "id": 17,
      "firstName": "????????",
      "lastName": "???????",
      "middleName": "?????????????",
      "organisationId": 1,
      "email": "mail1@mail.ru"
    },
    {
      "id": 18,
      "firstName": "???????",
      "lastName": "??????",
      "middleName": "??????????",
      "displayName": "??????? ??????",
      "organisationId": 1,
      "email": "mail2@mail.ru"
    },
    {
      "id": 19,
      "firstName": "???????",
      "lastName": "?????????",
      "middleName": "????????????",
      "organisationId": 1,
      "email": "mail3@mail.ru",
      "password": "123"
    },
    {
      "id": 20,
      "firstName": "???????????",
      "lastName": "??????",
      "middleName": "????????????",
      "organisationId": 1,
      "email": "mail4@mail.ru"
    },
    {
      "id": 21,
      "firstName": "????",
      "lastName": "????",
      "middleName": "?????????",
      "organisationId": 2,
      "email": "mail5@mail.ru"
    },
    {
      "id": 22,
      "firstName": "????????",
      "lastName": "??????",
      "middleName": "????????????",
      "organisationId": 2,
      "email": "mail6@mail.ru"
    },
    {
      "id": 23,
      "firstName": "???????",
      "lastName": "????",
      "middleName": "??????????",
      "organisationId": 2,
      "email": "mail7@mail.ru"
    },
    {
      "id": 24,
      "firstName": "????????",
      "lastName": "?????",
      "middleName": "????????????",
      "organisationId": 3,
      "email": "mail8@mail.ru"
    },
    {
      "id": 25,
      "firstName": "????????",
      "lastName": "???????",
      "middleName": "?????????????",
      "organisationId": 1,
      "email": "mail1@mail.ru"
    },
    {
      "id": 26,
      "firstName": "???????",
      "lastName": "??????",
      "middleName": "??????????",
      "displayName": "??????? ??????",
      "organisationId": 1,
      "email": "mail2@mail.ru"
    },
    {
      "id": 27,
      "firstName": "???????",
      "lastName": "?????????",
      "middleName": "????????????",
      "organisationId": 1,
      "email": "mail3@mail.ru",
      "password": "123"
    },
    {
      "id": 28,
      "firstName": "???????????",
      "lastName": "??????",
      "middleName": "????????????",
      "organisationId": 1,
      "email": "mail4@mail.ru"
    },
    {
      "id": 29,
      "firstName": "????",
      "lastName": "????",
      "middleName": "?????????",
      "organisationId": 2,
      "email": "mail5@mail.ru"
    },
    {
      "id": 30,
      "firstName": "????????",
      "lastName": "??????",
      "middleName": "????????????",
      "organisationId": 2,
      "email": "mail6@mail.ru"
    },
    {
      "id": 31,
      "firstName": "???????",
      "lastName": "????",
      "middleName": "??????????",
      "organisationId": 2,
      "email": "mail7@mail.ru"
    },
    {
      "id": 32,
      "firstName": "????????",
      "lastName": "?????",
      "middleName": "????????????",
      "organisationId": 3,
      "email": "mail8@mail.ru"
    },
    {
      "id": 33,
      "firstName": "????????",
      "lastName": "???????",
      "middleName": "?????????????",
      "organisationId": 1,
      "email": "mail1@mail.ru"
    },
    {
      "id": 34,
      "firstName": "???????",
      "lastName": "??????",
      "middleName": "??????????",
      "displayName": "??????? ??????",
      "organisationId": 1,
      "email": "mail2@mail.ru"
    },
    {
      "id": 35,
      "firstName": "???????",
      "lastName": "?????????",
      "middleName": "????????????",
      "organisationId": 1,
      "email": "mail3@mail.ru",
      "password": "123"
    },
    {
      "id": 36,
      "firstName": "???????????",
      "lastName": "??????",
      "middleName": "????????????",
      "organisationId": 1,
      "email": "mail4@mail.ru"
    },
    {
      "id": 37,
      "firstName": "????",
      "lastName": "????",
      "middleName": "?????????",
      "organisationId": 2,
      "email": "mail5@mail.ru"
    },
    {
      "id": 38,
      "firstName": "????????",
      "lastName": "??????",
      "middleName": "????????????",
      "organisationId": 2,
      "email": "mail6@mail.ru"
    },
    {
      "id": 39,
      "firstName": "???????",
      "lastName": "????",
      "middleName": "??????????",
      "organisationId": 2,
      "email": "mail7@mail.ru"
    },
    {
      "id": 40,
      "firstName": "????????",
      "lastName": "?????",
      "middleName": "????????????",
      "organisationId": 3,
      "email": "mail8@mail.ru"
    }
  ]
}